Blur Example • deident
…
A simple ‘blur’ might be to change the taxonomy of ‘Shift’
e.g. combine ‘Day’ and ‘Night’ into a new group ‘Working’ and ignore the
‘Rest’ shifts. To do this we define the values we wish to change as a
vector, build a pipeline and apply it to the data:

shift_blur <- c("Day" = "Working", "Night" = "Working")
blur_pipe <- ShiftsWorked |>
  add_blur(Shift, blur = shift_blur)

apply_deident(ShiftsWorked, blur_pipe)
#> # A tibble: 3,100 × 7
#>    `Record ID` Employee   Date       Shift `Shift Start` `Shift End` `Daily Pay`
#>          <int> <chr>      <date>     <chr> <chr>         <chr>             <dbl>
#>  1           1 Maria Cook 2015-01-01 Work… 17:01         00:01              78.1
#>  2           2 Stephen C… 2015-01-01 Work… 08:01         16:01             155. 
#>  3           3 Kimberly … 2015-01-01 Work… 08:01         16:01              77.8
#>  4           4 Nathan Al… 2015-01-01 Work… 08:01         15:01             203. 
#>  5           5 Samuel Pa… 2015-01-01 Work… 16:01         23:01             211. 
#>  6           6 Scott Mor… 2015-01-01 Work… 17:01         00:01             142. 
#>  7           7 Nathan Sa… 2015-01-01 Rest  NA            NA                  0  
#>  8           8 Jose Lopez 2015-01-01 Work… 17:01         00:01             213. 
#>  9           9 Donna Bro… 2015-01-01 Work… 16:01         00:01             219. 
#> 10          10 George Ki… 2015-01-01 Work… 16:01         00:01             242. 
#> # ℹ 3,090 more rows
…
