Transformations • deident
…
To demonstrate the different transformation we use the
babynames data set co-opted from the babynames
package:

library(deident)

babynames <- babynames::babynames |> 
  dplyr::filter(year > 2015) 

babynames
#> # A tibble: 65,448 × 5
#>    year sex   name       n    prop
#>   <dbl> <chr> <chr>  <int>   <dbl>
#> 1  2016 F     Emma   19471 0.0101 
#> 2  2016 F     Olivia 19327 0.0100 
#> 3  2016 F     Ava    16283 0.00844
#> 4  2016 F     Sophia 16112 0.00835
#> # ℹ 65,444 more rows
…
psu$set_method(new_method)

dlist_psu <- deident(babynames, psu, name)
dlist_psu
#> DeidentList
#>    1 step(s) implemented 
#>    Step 1 : 'Pseudonymizer' on variable(s) name 
#> For data:
#>    columns: year, sex, name, n, prop

apply_deident(babynames, dlist_psu)
#> # A tibble: 65,448 × 5
#>    year sex   name             n    prop
#>   <dbl> <chr> <chr>        <int>   <dbl>
#> 1  2016 F     mwlefoodfiee 19471 0.0101 
#> 2  2016 F     xombwkkeulbf 19327 0.0100 
#> 3  2016 F     dpbcyvkgufiv 16283 0.00844
#> 4  2016 F     jubqtxvafbsn 16112 0.00835
#> # ℹ 65,444 more rows
…
encrypt <- Encrypter$new(hash_key = "deident_hash_key_123", seed = 202)
dlist_enc <- deident(babynames, encrypt, name)
dlist_enc
#> DeidentList
#>    1 step(s) implemented 
#>    Step 1 : 'Encrypter' on variable(s) name 
#> For data:
#>    columns: year, sex, name, n, prop

apply_deident(babynames, dlist_enc)
#> # A tibble: 65,448 × 5
#>    year sex   name                                                     n    prop
#>   <dbl> <chr> <hash>                                               <int>   <dbl>
#> 1  2016 F     b80ab4da7d4e50cdc2897d002a5446cd8d69cc7d62d798535a4… 19471 0.0101 
#> 2  2016 F     f435872c4aaf1f167d583cd2a505513b9c6404590a930a70dcc… 19327 0.0100 
#> 3  2016 F     68f6878121736390203d6bcfeb7ca94cc58100e34806999d33f… 16283 0.00844
#> 4  2016 F     adfb6f7051dc1f87fdbf75f0d8783d054f8dd06b9d0748e699b… 16112 0.00835
#> # ℹ 65,444 more rows
…
At initialization, Perturber can be given a scale for
the white noise via the sd argument.

perturb <- Perturber$new(noise = adaptive_noise(0.2))
dlist_pert <- deident(babynames, perturb, prop)
dlist_pert
#> DeidentList
#>    1 step(s) implemented 
#>    Step 1 : 'Perturber(adaptive_noise(0.2))' on variable(s) prop 
#> For data:
#>    columns: year, sex, name, n, prop

apply_deident(babynames, dlist_pert)
#> # A tibble: 65,448 × 5
#>    year sex   name       n    prop
#>   <dbl> <chr> <chr>  <int>   <dbl>
#> 1  2016 F     Emma   19471 0.0101 
#> 2  2016 F     Olivia 19327 0.0100 
#> 3  2016 F     Ava    16283 0.00841
#> 4  2016 F     Sophia 16112 0.00848
#> # ℹ 65,444 more rows
…
At initialization NumericBlurrer takes an argument
cuts to define the limits of each interval.

numeric_blur <- NumericBlurrer$new(cuts = c(10, 30))
dlist_nb <- deident(babynames, numeric_blur, n)
dlist_nb
#> DeidentList
#>    1 step(s) implemented 
#>    Step 1 : 'NumericBlurrer' on variable(s) n 
#> For data:
#>    columns: year, sex, name, n, prop

apply_deident(babynames, dlist_nb)
#> # A tibble: 65,448 × 5
#>    year sex   name   n            prop
#>   <dbl> <chr> <chr>  <fct>       <dbl>
#> 1  2016 F     Emma   (30, Inf] 0.0101 
#> 2  2016 F     Olivia (30, Inf] 0.0100 
#> 3  2016 F     Ava    (30, Inf] 0.00844
#> 4  2016 F     Sophia (30, Inf] 0.00835
#> # ℹ 65,444 more rows
…
At initialization GroupedShuffler takes an argument
limit such that if any aggregated sub group has fewer than
limit observations all values are dropped.

numeric_blur <- GroupedShuffler$new(year, limit = 1)
dlist_groupshuffle <- deident(babynames, numeric_blur, name)
dlist_groupshuffle
#> DeidentList
#>    1 step(s) implemented 
#>    Step 1 : 'GroupedShuffler(group_on=year)' on variable(s) name 
#> For data:
#>    columns: year, sex, name, n, prop

apply_deident(babynames, dlist_groupshuffle)
#> # A tibble: 65,448 × 5
#> # Groups:   year [2]
#>    year sex   name         n    prop
#>   <dbl> <chr> <chr>    <int>   <dbl>
#> 1  2016 F     Ailani   19471 0.0101 
#> 2  2016 F     Liliyana 19327 0.0100 
#> 3  2016 F     Randell  16283 0.00844
#> 4  2016 F     Powell   16112 0.00835
#> # ℹ 65,444 more rows
…
